\relax 
\providecommand\hyper@newdestlabel[2]{}
\providecommand\HyperFirstAtBeginDocument{\AtBeginDocument}
\HyperFirstAtBeginDocument{\ifx\hyper@anchor\@undefined
\global\let\oldcontentsline\contentsline
\gdef\contentsline#1#2#3#4{\oldcontentsline{#1}{#2}{#3}}
\global\let\oldnewlabel\newlabel
\gdef\newlabel#1#2{\newlabelxx{#1}#2}
\gdef\newlabelxx#1#2#3#4#5#6{\oldnewlabel{#1}{{#2}{#3}}}
\AtEndDocument{\ifx\hyper@anchor\@undefined
\let\contentsline\oldcontentsline
\let\newlabel\oldnewlabel
\fi}
\fi}
\global\let\hyper@last\relax 
\gdef\HyperFirstAtBeginDocument#1{#1}
\providecommand\HyField@AuxAddToFields[1]{}
\providecommand\HyField@AuxAddToCoFields[2]{}
\select@language{english}
\@writefile{toc}{\select@language{english}}
\@writefile{lof}{\select@language{english}}
\@writefile{lot}{\select@language{english}}
\newlabel{index::doc}{{}{1}{}{section*.2}{}}
\@writefile{toc}{\contentsline {chapter}{\numberline {1}Introduction}{1}{chapter.1}}
\@writefile{lof}{\addvspace {10\p@ }}
\@writefile{lot}{\addvspace {10\p@ }}
\@writefile{loliteral-block}{\addvspace {10\p@ }}
\newlabel{Introduction:introduction}{{1}{1}{Introduction}{chapter.1}{}}
\newlabel{Introduction:id1}{{1}{1}{Introduction}{chapter.1}{}}
\newlabel{Introduction::doc}{{1}{1}{Introduction}{chapter.1}{}}
\newlabel{Introduction:linuxiot-product-documentation}{{1}{1}{Introduction}{chapter.1}{}}
\@writefile{toc}{\contentsline {section}{\numberline {1.1}1. General Introduction}{1}{section.1.1}}
\newlabel{Introduction:general-introduction}{{1.1}{1}{1. General Introduction}{section.1.1}{}}
\@writefile{toc}{\contentsline {section}{\numberline {1.2}2. Product}{1}{section.1.2}}
\newlabel{Introduction:product}{{1.2}{1}{2. Product}{section.1.2}{}}
\@writefile{toc}{\contentsline {chapter}{\numberline {2}Product Brief}{3}{chapter.2}}
\@writefile{lof}{\addvspace {10\p@ }}
\@writefile{lot}{\addvspace {10\p@ }}
\@writefile{loliteral-block}{\addvspace {10\p@ }}
\newlabel{Product:product}{{2}{3}{Product Brief}{chapter.2}{}}
\newlabel{Product::doc}{{2}{3}{Product Brief}{chapter.2}{}}
\newlabel{Product:product-brief}{{2}{3}{Product Brief}{chapter.2}{}}
\@writefile{toc}{\contentsline {section}{\numberline {2.1}1. Product}{3}{section.2.1}}
\newlabel{Product:id1}{{2.1}{3}{1. Product}{section.2.1}{}}
\@writefile{toc}{\contentsline {section}{\numberline {2.2}2. Hardware}{4}{section.2.2}}
\newlabel{Product:hardware}{{2.2}{4}{2. Hardware}{section.2.2}{}}
\@writefile{toc}{\contentsline {subsection}{\numberline {2.2.1}2.1. End-point Board}{4}{subsection.2.2.1}}
\newlabel{Product:end-point-board}{{2.2.1}{4}{2.1. End-point Board}{subsection.2.2.1}{}}
\@writefile{toc}{\contentsline {subsubsection}{2.1.1. Block Diagram}{4}{subsubsection*.3}}
\newlabel{Product:block-diagram}{{2.2.1}{4}{2.1.1. Block Diagram}{subsubsection*.3}{}}
\@writefile{toc}{\contentsline {subsubsection}{2.1.2. Product Specifications}{5}{subsubsection*.4}}
\newlabel{Product:product-specifications}{{2.2.1}{5}{2.1.2. Product Specifications}{subsubsection*.4}{}}
\@writefile{toc}{\contentsline {subsection}{\numberline {2.2.2}2.2. Program and Debug Board}{7}{subsection.2.2.2}}
\newlabel{Product:program-and-debug-board}{{2.2.2}{7}{2.2. Program and Debug Board}{subsection.2.2.2}{}}
\@writefile{toc}{\contentsline {subsubsection}{2.2.1. Product Specifications}{8}{subsubsection*.5}}
\newlabel{Product:id2}{{2.2.2}{8}{2.2.1. Product Specifications}{subsubsection*.5}{}}
\@writefile{toc}{\contentsline {subsection}{\numberline {2.2.3}2.3. Heart Rate Pulse Oximeter Board}{8}{subsection.2.2.3}}
\newlabel{Product:heart-rate-pulse-oximeter-board}{{2.2.3}{8}{2.3. Heart Rate Pulse Oximeter Board}{subsection.2.2.3}{}}
\@writefile{toc}{\contentsline {subsubsection}{2.3.1. Product Specifications}{8}{subsubsection*.6}}
\newlabel{Product:id3}{{2.2.3}{8}{2.3.1. Product Specifications}{subsubsection*.6}{}}
\@writefile{toc}{\contentsline {subsection}{\numberline {2.2.4}2.4. IoT Gateway Board - C.H.I.P Breakout}{8}{subsection.2.2.4}}
\newlabel{Product:iot-gateway-board-c-h-i-p-breakout}{{2.2.4}{8}{2.4. IoT Gateway Board - C.H.I.P Breakout}{subsection.2.2.4}{}}
\@writefile{toc}{\contentsline {subsubsection}{2.4.1. Product Specifications}{9}{subsubsection*.7}}
\newlabel{Product:id4}{{2.2.4}{9}{2.4.1. Product Specifications}{subsubsection*.7}{}}
\@writefile{toc}{\contentsline {subsection}{\numberline {2.2.5}2.5. Navigation Board}{9}{subsection.2.2.5}}
\newlabel{Product:navigation-board}{{2.2.5}{9}{2.5. Navigation Board}{subsection.2.2.5}{}}
\@writefile{toc}{\contentsline {subsubsection}{2.5.1. Product Specifications}{10}{subsubsection*.8}}
\newlabel{Product:id5}{{2.2.5}{10}{2.5.1. Product Specifications}{subsubsection*.8}{}}
\@writefile{toc}{\contentsline {subsection}{\numberline {2.2.6}2.6. Optical and Thermal Vision Sensor}{11}{subsection.2.2.6}}
\newlabel{Product:optical-and-thermal-vision-sensor}{{2.2.6}{11}{2.6. Optical and Thermal Vision Sensor}{subsection.2.2.6}{}}
\@writefile{toc}{\contentsline {subsubsection}{2.6.1. Product Specifications}{11}{subsubsection*.9}}
\newlabel{Product:id6}{{2.2.6}{11}{2.6.1. Product Specifications}{subsubsection*.9}{}}
\@writefile{toc}{\contentsline {subsection}{\numberline {2.2.7}2.7. Board-to-board Flex Connector}{11}{subsection.2.2.7}}
\newlabel{Product:board-to-board-flex-connector}{{2.2.7}{11}{2.7. Board-to-board Flex Connector}{subsection.2.2.7}{}}
\@writefile{toc}{\contentsline {subsubsection}{2.7.1. Product Specifications}{12}{subsubsection*.10}}
\newlabel{Product:id7}{{2.2.7}{12}{2.7.1. Product Specifications}{subsubsection*.10}{}}
\@writefile{toc}{\contentsline {chapter}{\numberline {3}Support}{13}{chapter.3}}
\@writefile{lof}{\addvspace {10\p@ }}
\@writefile{lot}{\addvspace {10\p@ }}
\@writefile{loliteral-block}{\addvspace {10\p@ }}
\newlabel{Support:support}{{3}{13}{Support}{chapter.3}{}}
\newlabel{Support::doc}{{3}{13}{Support}{chapter.3}{}}
\newlabel{Support:id1}{{3}{13}{Support}{chapter.3}{}}
